%YAML 1.1
%TAG !u! tag:unity3d.com,2011:
--- !u!114 &11400000
MonoBehaviour:
  m_ObjectHideFlags: 0
  m_CorrespondingSourceObject: {fileID: 0}
  m_PrefabInstance: {fileID: 0}
  m_PrefabAsset: {fileID: 0}
  m_GameObject: {fileID: 0}
  m_Enabled: 1
  m_EditorHideFlags: 0
  m_Script: {fileID: 11500000, guid: 9845155a0a884f0896dbe92daf38ca25, type: 3}
  m_Name: SkinManager
  m_EditorClassIdentifier: 
  allSkins:
  - {fileID: 11400000, guid: 86c2dafbac03e0d43a39d5d3b9362d9c, type: 2}
  - {fileID: 11400000, guid: 534de003ce9c6194bbf70d230be4f3cf, type: 2}
  - {fileID: 11400000, guid: c6628d53a1bc33c4eb34c0919f12a393, type: 2}
  - {fileID: 11400000, guid: c9da871c1f769724ab958df2004adfbe, type: 2}
  - {fileID: 11400000, guid: 58f687161d0d1a04ba0e2582ce53c0c5, type: 2}
  defaultSkin: {fileID: 11400000, guid: c6628d53a1bc33c4eb34c0919f12a393, type: 2}
  progToOpenChest: 100
  progAddPerGame: 24
