%YAML 1.1
%TAG !u! tag:unity3d.com,2011:
--- !u!114 &11400000
MonoBehaviour:
  m_ObjectHideFlags: 0
  m_CorrespondingSourceObject: {fileID: 0}
  m_PrefabInstance: {fileID: 0}
  m_PrefabAsset: {fileID: 0}
  m_GameObject: {fileID: 0}
  m_Enabled: 1
  m_EditorHideFlags: 0
  m_Script: {fileID: 11500000, guid: e5c22a5f4e9645f4a4bd30d9ee13a4c9, type: 3}
  m_Name: SkinData1
  m_EditorClassIdentifier: 
  id: a9e70586-c386-4665-9bbd-7a680961eb50
  skinName: Girl With Knife
  price: 50
  icon: {fileID: 21300000, guid: 4059405a4690ac2468b69daf68e908f1, type: 3}
  model3D: {fileID: 6252356961377389083, guid: 2db03e7c8a8135146b280e5da7e0289c, type: 3}
  unlockMethod: 1
  unlockLevel: 2
