%YAML 1.1
%TAG !u! tag:unity3d.com,2011:
--- !u!114 &11400000
MonoBehaviour:
  m_ObjectHideFlags: 0
  m_CorrespondingSourceObject: {fileID: 0}
  m_PrefabInstance: {fileID: 0}
  m_PrefabAsset: {fileID: 0}
  m_GameObject: {fileID: 0}
  m_Enabled: 1
  m_EditorHideFlags: 0
  m_Script: {fileID: 11500000, guid: cb154e9c75718d74d80f0d8a2edf037f, type: 3}
  m_Name: Level6
  m_EditorClassIdentifier: 
  mapPrefab: {fileID: 3900645768588705743, guid: 7a1867f9452572a41a0adfaf6a531ebf,
    type: 3}
  goldScale: 4
